<svg xmlns="http://www.w3.org/2000/svg" width="62.5" height="73.667" viewBox="0 0 62.5 73.667">
  <g id="delivery-man_1_" data-name="delivery-man (1)" transform="translate(-1.156 -43.568)">
    <path id="Path_211" data-name="Path 211" d="M73.592,79.751c-.891,2.02-2.436,3.149-3.505,2.555s-1.188-2.674-.3-4.634c.891-2.02,2.436-3.149,3.505-2.555C74.364,75.651,74.483,77.731,73.592,79.751Z" transform="translate(-26.13 -12.036)" fill="#ffd15c"/>
    <path id="Path_212" data-name="Path 212" d="M26.975,79.751c.891,2.02,2.436,3.149,3.505,2.555s1.188-2.674.3-4.634c-.891-2.02-2.436-3.149-3.505-2.555C26.2,75.651,26.084,77.731,26.975,79.751Z" transform="translate(-9.688 -12.036)" fill="#ffd15c"/>
    <g id="Group_197" data-name="Group 197" transform="translate(21.323 81.386)">
      <path id="Path_213" data-name="Path 213" d="M63.061,106.267s-6.06-2.436-11.051-.713v5.941c.772-.119,1.485-.3,2.2-.475l8.258-1.782Z" transform="translate(-40.959 -104.937)" fill="#d7202b"/>
      <path id="Path_214" data-name="Path 214" d="M33.317,106.3l.594,2.971,10.457,2.317v-5.941C39.377,103.924,33.317,106.3,33.317,106.3Z" transform="translate(-33.317 -104.971)" fill="#d7202b"/>
    </g>
    <path id="Path_215" data-name="Path 215" d="M58.961,115.056l-8.126-8.674H34.709l-8.126,8.674Z" transform="translate(-10.396 -24.054)" fill="#fff"/>
    <rect id="Rectangle_47" data-name="Rectangle 47" width="10.397" height="6.298" transform="translate(27.145 88.275)" fill="#d7202b"/>
    <path id="Path_216" data-name="Path 216" d="M54.456,99.388c-.059-.059-.059-.178-.119-.238a4.045,4.045,0,0,1-.891,1.6,8.531,8.531,0,0,1-13.19,0,4.531,4.531,0,0,1-.891-1.6c-.059.059-.059.119-.119.178a3.858,3.858,0,0,0,.475-1.6l.178-2.2h0l.416-6.833H53.268l.654,9.031a6.267,6.267,0,0,0,.356,1.426A.82.82,0,0,1,54.456,99.388Z" transform="translate(-14.414 -17.144)" fill="#fff"/>
    <path id="Path_218" data-name="Path 218" d="M32.193,64.573a13.591,13.591,0,0,0-1.188,5.763c0,8.5,5.585,19.19,12.417,19.19S55.84,78.832,55.84,70.336a12.748,12.748,0,0,0-1.188-5.763Z" transform="translate(-11.048 -7.851)" fill="#ffd15c"/>
    <g id="Group_198" data-name="Group 198" transform="translate(17.996 53.668)">
      <path id="Path_219" data-name="Path 219" d="M31.134,63.467H28.283a14.228,14.228,0,0,0-.594,3.921,13.777,13.777,0,0,0,2.733,8.258,24.824,24.824,0,0,1-.772-5.763A12.812,12.812,0,0,1,31.134,63.467Z" transform="translate(-27.688 -61.804)" fill="#2b3b4e"/>
      <path id="Path_220" data-name="Path 220" d="M70.5,63.467a12.812,12.812,0,0,1,1.485,6.417,21.678,21.678,0,0,1-.772,5.763,13.777,13.777,0,0,0,2.733-8.258,12.3,12.3,0,0,0-.594-3.921Z" transform="translate(-45.193 -61.804)" fill="#2b3b4e"/>
      <path id="Path_221" data-name="Path 221" d="M56.527,66.238a15.6,15.6,0,0,1-.3,2.911,1.8,1.8,0,0,0-1.664.416V68.08a3.5,3.5,0,0,0-4.872-3.149,20.094,20.094,0,0,1-7.486,1.307,20.094,20.094,0,0,1-7.486-1.307A3.519,3.519,0,0,0,29.85,68.08v1.485a1.872,1.872,0,0,0-1.664-.416,15.6,15.6,0,0,1-.3-2.911,12.669,12.669,0,0,1,.594-3.981c.059-.119.059-.3.119-.416a71.785,71.785,0,0,1,13.665-1.188,72.236,72.236,0,0,1,13.665,1.188c.059.119.059.3.119.416A21.465,21.465,0,0,1,56.527,66.238Z" transform="translate(-27.771 -60.653)" fill="#2b3b4e"/>
    </g>
    <path id="Path_222" data-name="Path 222" d="M48.693,119.548h0Z" transform="translate(-18.322 -29.336)" fill="#f1543f"/>
    <path id="Path_223" data-name="Path 223" d="M63.656,127.928A39.708,39.708,0,0,1,32.375,142.9h-1.3A39.366,39.366,0,0,1,1.156,127.928c0-15.447,16.535-13.962,18.694-14.616.123-.119.247-.178.37-.3,1.481,2.258,6.417,3.921,12.216,3.921,5.676,0,10.489-1.545,12.093-3.743h0C44.838,113.253,63.286,112.48,63.656,127.928Z" transform="translate(0 -25.665)" fill="#415a6b"/>
    <rect id="Rectangle_48" data-name="Rectangle 48" width="62.5" height="15.269" transform="translate(1.156 101.669)" fill="#415a6b"/>
    <g id="Group_199" data-name="Group 199" transform="translate(31.127 92.149)">
      <circle id="Ellipse_40" data-name="Ellipse 40" cx="1.248" cy="1.248" r="1.248" fill="#d7202b"/>
      <circle id="Ellipse_41" data-name="Ellipse 41" cx="1.248" cy="1.248" r="1.248" transform="translate(0 4.931)" fill="#d7202b"/>
    </g>
    <path id="Path_224" data-name="Path 224" d="M56.344,65.465c0,1.961-6.417,3.446-14.378,3.446-7.9,0-14.378-1.545-14.378-3.446,0-1.961,6.417-3.505,14.378-3.505S56.344,63.5,56.344,65.465Z" transform="translate(-9.656 -7.056)" fill="#a30018"/>
    <g id="Group_200" data-name="Group 200" transform="translate(17.994 43.924)">
      <path id="Path_225" data-name="Path 225" d="M56.385,58.192a51.244,51.244,0,0,0-28.7,0c.059-.594.178-1.188.238-1.782A14.25,14.25,0,0,1,41.948,44.171h.238a14.191,14.191,0,0,1,13.962,12.3A15.06,15.06,0,0,1,56.385,58.192Z" transform="translate(-27.688 -44.171)" fill="#d7202b"/>
      <path id="Path_226" data-name="Path 226" d="M56.467,58.192a50,50,0,0,0-13.843-2.02h-.891a49.415,49.415,0,0,0-6.654.475,49.988,49.988,0,0,0-7.189,1.545c.059-.594.178-1.188.238-1.782a14.04,14.04,0,0,1,13.9-12.239h.238a14.191,14.191,0,0,1,13.962,12.3A15.061,15.061,0,0,1,56.467,58.192Z" transform="translate(-27.771 -44.171)" fill="#d7202b"/>
    </g>
    <path id="Path_227" data-name="Path 227" d="M54.25,56.607a50.121,50.121,0,0,0-6.654-.475H46.7a49.416,49.416,0,0,0-6.654.475v-.238c.475-6.951,3.505-12.239,7.07-12.3h.119c3.565,0,6.535,5.288,7.07,12.3A.449.449,0,0,0,54.25,56.607Z" transform="translate(-14.743 -0.205)" fill="#a30018"/>
    <g id="Group_201" data-name="Group 201" transform="translate(19.244 82.915)">
      <path id="Path_228" data-name="Path 228" d="M63.061,107.186s-5.644,4.04-11.051,5.288c0,0,3.387,1.664,4.337,6.654l8.793-8.021Z" transform="translate(-38.88 -107.186)" fill="#e6e9ee"/>
      <path id="Path_229" data-name="Path 229" d="M31.878,107.186s5.644,4.04,11.051,5.288c0,0-3.387,1.664-4.337,6.654l-8.793-8.08Z" transform="translate(-29.799 -107.186)" fill="#e6e9ee"/>
    </g>
    <ellipse id="Ellipse_42" data-name="Ellipse 42" cx="2.139" cy="0.416" rx="2.139" ry="0.416" transform="translate(30.236 43.568)" fill="#d7202b"/>
    <path id="Path_230" data-name="Path 230" d="M72.921,116.36l-18.775,26.8a36.034,36.034,0,0,1-4.456.238H48.443c-.654,0-1.307-.059-1.961-.119L66.8,114.221A19.333,19.333,0,0,1,72.921,116.36Z" transform="translate(-16.217 -26.158)" fill="#d7202b"/>
    <path id="Path_231" data-name="Path 231" d="M39.825,82.806h0a1.633,1.633,0,0,1-1.633-1.633v-.16a1.633,1.633,0,0,1,1.633-1.633h0a1.633,1.633,0,0,1,1.633,1.633v.16A1.633,1.633,0,0,1,39.825,82.806Z" transform="translate(-14.252 -13.786)" fill="#a30018"/>
    <path id="Path_232" data-name="Path 232" d="M60.227,82.806h0a1.633,1.633,0,0,1-1.633-1.633v-.16a1.633,1.633,0,0,1,1.633-1.633h0a1.633,1.633,0,0,1,1.633,1.633v.16A1.633,1.633,0,0,1,60.227,82.806Z" transform="translate(-22.102 -13.786)" fill="#a30018"/>
  </g>
</svg>
